lvl,page,user
1,www.a.hu,69
1,www.b.hu,59
2,www.c.hu,37
2,www.d.hu,38
2,www.e.hu,15
2,www.a.hu,59
3,www.b.hu,65
3,www.c.hu,83
3,www.d.hu,36
3,www.e.hu,42
3,www.a.hu,28
3,www.b.hu,25
6,www.c.hu,80
7,www.d.hu,39
7,www.e.hu,40
5,www.a.hu,93
5,www.b.hu,79
5,www.c.hu,74
1,www.d.hu,100
4,www.e.hu,80
6,www.a.hu,78
5,www.b.hu,8
3,www.c.hu,80
1,www.d.hu,35
1,www.e.hu,51
3,www.c.hu,67
3,www.d.hu,23
3,www.e.hu,17
6,www.a.hu,78
7,www.b.hu,47
7,www.c.hu,17
5,www.c.hu,50
7,www.d.hu,21
7,www.e.hu,30
5,www.a.hu,53
5,www.b.hu,62
5,www.c.hu,96
1,www.e.hu,13
4,www.a.hu,87
6,www.b.hu,5
5,www.c.hu,42
3,www.d.hu,79
1,www.e.hu,7
1,www.a.hu,32
3,www.b.hu,0
7,www.c.hu,16
7,www.d.hu,50
5,www.e.hu,88
5,www.a.hu,57
5,www.b.hu,87
1,www.c.hu,29
4,www.d.hu,62
6,www.e.hu,3
